{"photos":{"page":1,"pages":9,"perpage":100,"total":"895","photo":[{"id":"37045877520","owner":"23720661@N08","secret":"837761cfbc","server":"4347","farm":5,"title":"Surrey Bike Rentals","ispublic":1,"isfriend":0,"isfamily":0},{"id":"36294201725","owner":"21652490@N06","secret":"5f5625cea5","server":"4326","farm":5,"title":"Ariel","ispublic":1,"isfriend":0,"isfamily":0},{"id":"36038549412","owner":"22937808@N04","secret":"54a958258b","server":"4296","farm":5,"title":"Reflecting on Disney's Dolphin","ispublic":1,"isfriend":0,"isfamily":0},{"id":"34754147614","owner":"21652490@N06","secret":"58cb1fc408","server":"4214","farm":5,"title":"Rapunzel","ispublic":1,"isfriend":0,"isfamily":0},{"id":"34459685563","owner":"22937808@N04","secret":"3878865e55","server":"4212","farm":5,"title":"Disney's Boardwalk","ispublic":1,"isfriend":0,"isfamily":0},{"id":"34798382710","owner":"22937808@N04","secret":"f79371f4e0","server":"4233","farm":5,"title":"Boardwalk Reflections","ispublic":1,"isfriend":0,"isfamily":0},{"id":"34681377905","owner":"21652490@N06","secret":"6663ea44c7","server":"4161","farm":5,"title":"Prince Eric","ispublic":1,"isfriend":0,"isfamily":0},{"id":"32723424233","owner":"85121305@N08","secret":"fd3f59fa47","server":"3698","farm":4,"title":"Orlando 2016 xIMG_7656","ispublic":1,"isfriend":0,"isfamily":0},{"id":"31031815091","owner":"54956677@N08","secret":"deb7c4cb34","server":"5663","farm":6,"title":"Disney's Boardwalk Inn","ispublic":1,"isfriend":0,"isfamily":0},{"id":"30853898265","owner":"10295241@N02","secret":"786c0cd49d","server":"5759","farm":6,"title":"The Boardwalk Resort at Night","ispublic":1,"isfriend":0,"isfamily":0},{"id":"28925115330","owner":"54956677@N08","secret":"d883631315","server":"8276","farm":9,"title":"Boardwalk Morning","ispublic":1,"isfriend":0,"isfamily":0},{"id":"27708787760","owner":"113086034@N04","secret":"be28c349d1","server":"7279","farm":8,"title":"Postcard Morning","ispublic":1,"isfriend":0,"isfamily":0},{"id":"27453064775","owner":"113086034@N04","secret":"9098b7fbbc","server":"7041","farm":8,"title":"Boardwalk Morning Rise","ispublic":1,"isfriend":0,"isfamily":0},{"id":"27250348075","owner":"47019925@N02","secret":"9c09bfc989","server":"7451","farm":8,"title":"Cryogenation [is to be optional]","ispublic":1,"isfriend":0,"isfamily":0},{"id":"26619350834","owner":"113086034@N04","secret":"318a0434cb","server":"7602","farm":8,"title":"Disney's Boardwalk Resort","ispublic":1,"isfriend":0,"isfamily":0},{"id":"25035688033","owner":"132959156@N02","secret":"c7590901ca","server":"1558","farm":2,"title":"Sunset on the Boardwalk","ispublic":1,"isfriend":0,"isfamily":0},{"id":"20703994891","owner":"23720661@N08","secret":"749e061b11","server":"778","farm":1,"title":"Hoop Toss","ispublic":1,"isfriend":0,"isfamily":0},{"id":"18992856539","owner":"22937808@N04","secret":"7e1ba705ac","server":"427","farm":1,"title":"Lighthouse at Disney's Yacht Club","ispublic":1,"isfriend":0,"isfamily":0},{"id":"14925246886","owner":"7366969@N02","secret":"68abc83ed2","server":"3837","farm":4,"title":"Disney's - Boardwalk","ispublic":1,"isfriend":0,"isfamily":0},{"id":"35103014746","owner":"21652490@N06","secret":"6ea9d07cb2","server":"4261","farm":5,"title":"Flynn Rider","ispublic":1,"isfriend":0,"isfamily":0},{"id":"34493855691","owner":"12440183@N04","secret":"04dc922458","server":"4171","farm":5,"title":"Scenes from Disney's Boardwalk","ispublic":1,"isfriend":0,"isfamily":0},{"id":"34582860706","owner":"12440183@N04","secret":"9d8b6a3b37","server":"4177","farm":5,"title":"Scenes from Disney's Boardwalk","ispublic":1,"isfriend":0,"isfamily":0},{"id":"34238295320","owner":"12440183@N04","secret":"227f65c290","server":"4180","farm":5,"title":"Scenes from Disney's Boardwalk","ispublic":1,"isfriend":0,"isfamily":0},{"id":"34582857526","owner":"12440183@N04","secret":"17707af6f3","server":"4169","farm":5,"title":"Scenes from Disney's Boardwalk","ispublic":1,"isfriend":0,"isfamily":0},{"id":"33781171064","owner":"12440183@N04","secret":"8e2b5e28d0","server":"4183","farm":5,"title":"Scenes from Disney's Boardwalk","ispublic":1,"isfriend":0,"isfamily":0},{"id":"34582853986","owner":"12440183@N04","secret":"326493f15e","server":"4180","farm":5,"title":"Scenes from Disney's Boardwalk","ispublic":1,"isfriend":0,"isfamily":0},{"id":"34238287850","owner":"12440183@N04","secret":"6efe8a395b","server":"4175","farm":5,"title":"Scenes from Disney's Boardwalk","ispublic":1,"isfriend":0,"isfamily":0},{"id":"34238285820","owner":"12440183@N04","secret":"8d3371cd93","server":"4190","farm":5,"title":"Scenes from Disney's Boardwalk","ispublic":1,"isfriend":0,"isfamily":0},{"id":"34238283770","owner":"12440183@N04","secret":"f64a284a8f","server":"4177","farm":5,"title":"Scenes from Disney's Boardwalk","ispublic":1,"isfriend":0,"isfamily":0},{"id":"34238281470","owner":"12440183@N04","secret":"56afee6f3e","server":"4189","farm":5,"title":"Scenes from Disney's Boardwalk","ispublic":1,"isfriend":0,"isfamily":0},{"id":"34238277620","owner":"12440183@N04","secret":"358bbae90d","server":"4164","farm":5,"title":"Scenes from Disney's Boardwalk","ispublic":1,"isfriend":0,"isfamily":0},{"id":"33814214013","owner":"12440183@N04","secret":"34e2ba91a9","server":"4187","farm":5,"title":"Scenes from Disney's Boardwalk","ispublic":1,"isfriend":0,"isfamily":0},{"id":"34238272310","owner":"12440183@N04","secret":"7bff7cc9bc","server":"4193","farm":5,"title":"Scenes from Disney's Boardwalk","ispublic":1,"isfriend":0,"isfamily":0},{"id":"33814212333","owner":"12440183@N04","secret":"28bf6c2ef7","server":"4173","farm":5,"title":"Scenes from Disney's Boardwalk","ispublic":1,"isfriend":0,"isfamily":0},{"id":"34493583381","owner":"12440183@N04","secret":"e9b96c39fc","server":"4155","farm":5,"title":"Scenes from Disney's Boardwalk","ispublic":1,"isfriend":0,"isfamily":0},{"id":"34462135282","owner":"12440183@N04","secret":"4527dedc67","server":"4178","farm":5,"title":"Scenes from Disney's Boardwalk","ispublic":1,"isfriend":0,"isfamily":0},{"id":"34462133812","owner":"12440183@N04","secret":"037bb447b4","server":"4178","farm":5,"title":"Scenes from Disney's Boardwalk","ispublic":1,"isfriend":0,"isfamily":0},{"id":"34462131932","owner":"12440183@N04","secret":"5016240350","server":"4164","farm":5,"title":"Scenes from Disney's Boardwalk","ispublic":1,"isfriend":0,"isfamily":0},{"id":"34462130882","owner":"12440183@N04","secret":"4d1b7a1db9","server":"4168","farm":5,"title":"Scenes from Disney's Boardwalk","ispublic":1,"isfriend":0,"isfamily":0},{"id":"34462129252","owner":"12440183@N04","secret":"7789c41f9e","server":"4190","farm":5,"title":"Scenes from Disney's Boardwalk","ispublic":1,"isfriend":0,"isfamily":0},{"id":"34462127962","owner":"12440183@N04","secret":"8c79db9a2d","server":"4160","farm":5,"title":"Scenes from Disney's Boardwalk","ispublic":1,"isfriend":0,"isfamily":0},{"id":"34624181855","owner":"12440183@N04","secret":"15d829b3bb","server":"4188","farm":5,"title":"Scenes from Disney's Boardwalk","ispublic":1,"isfriend":0,"isfamily":0},{"id":"34238254720","owner":"12440183@N04","secret":"86ab3d33bb","server":"4178","farm":5,"title":"Scenes from Disney's Boardwalk","ispublic":1,"isfriend":0,"isfamily":0},{"id":"34624176535","owner":"12440183@N04","secret":"b5a5a18607","server":"4157","farm":5,"title":"Scenes from Disney's Boardwalk","ispublic":1,"isfriend":0,"isfamily":0},{"id":"34238253260","owner":"12440183@N04","secret":"89ba165c24","server":"4179","farm":5,"title":"Scenes from Disney's Boardwalk","ispublic":1,"isfriend":0,"isfamily":0},{"id":"33781140034","owner":"12440183@N04","secret":"ff1e8d068f","server":"4181","farm":5,"title":"Scenes from Disney's Boardwalk","ispublic":1,"isfriend":0,"isfamily":0},{"id":"34624170935","owner":"12440183@N04","secret":"0a597ebe6f","server":"4190","farm":5,"title":"Scenes from Disney's Boardwalk","ispublic":1,"isfriend":0,"isfamily":0},{"id":"33781136444","owner":"12440183@N04","secret":"3fc68d38df","server":"4171","farm":5,"title":"Scenes from Disney's Boardwalk","ispublic":1,"isfriend":0,"isfamily":0},{"id":"34624167505","owner":"12440183@N04","secret":"3f993ee3cd","server":"4162","farm":5,"title":"Scenes from Disney's Boardwalk","ispublic":1,"isfriend":0,"isfamily":0},{"id":"34462114212","owner":"12440183@N04","secret":"392243bdc0","server":"4185","farm":5,"title":"Scenes from Disney's Boardwalk","ispublic":1,"isfriend":0,"isfamily":0},{"id":"34493556821","owner":"12440183@N04","secret":"0f8622d3d0","server":"4182","farm":5,"title":"Scenes from Disney's Boardwalk","ispublic":1,"isfriend":0,"isfamily":0},{"id":"33172116000","owner":"85121305@N08","secret":"8a5ae79377","server":"3767","farm":4,"title":"Orlando 2016 xIMG_7740-1","ispublic":1,"isfriend":0,"isfamily":0},{"id":"33380887632","owner":"85121305@N08","secret":"e9b3f45d1d","server":"3931","farm":4,"title":"Disney\u2019s Boardwalk at night - Orlando 2016 xIMG_7668","ispublic":1,"isfriend":0,"isfamily":0},{"id":"33538028865","owner":"85121305@N08","secret":"40210b654c","server":"2923","farm":3,"title":"Orlando 2016 xIMG_7670","ispublic":1,"isfriend":0,"isfamily":0},{"id":"33538028195","owner":"85121305@N08","secret":"f0aaf4d1e1","server":"3696","farm":4,"title":"Orlando 2016 xIMG_7673","ispublic":1,"isfriend":0,"isfamily":0},{"id":"33409262861","owner":"85121305@N08","secret":"60ddc60d91","server":"2928","farm":3,"title":"Epcot fireworks from the Boardwalk Orlando 2016 IMG_7694","ispublic":1,"isfriend":0,"isfamily":0},{"id":"33538026245","owner":"85121305@N08","secret":"f3229c7a2a","server":"2893","farm":3,"title":"Friendship boat - Orlando 2016 IMG_7552","ispublic":1,"isfriend":0,"isfamily":0},{"id":"33409261191","owner":"85121305@N08","secret":"5b3f690103","server":"2854","farm":3,"title":"Orlando 2016 xIMG_7559","ispublic":1,"isfriend":0,"isfamily":0},{"id":"33538024805","owner":"85121305@N08","secret":"2d45b86e8c","server":"2838","farm":3,"title":"Orlando 2016 xIMG_7564","ispublic":1,"isfriend":0,"isfamily":0},{"id":"33409259941","owner":"85121305@N08","secret":"17571bb32e","server":"2917","farm":3,"title":"Orlando 2016 xIMG_7570","ispublic":1,"isfriend":0,"isfamily":0},{"id":"33496970806","owner":"85121305@N08","secret":"0fb3cf6973","server":"3780","farm":4,"title":"Orlando 2016 xIMG_7576","ispublic":1,"isfriend":0,"isfamily":0},{"id":"33409257851","owner":"85121305@N08","secret":"b3efe0260e","server":"2860","farm":3,"title":"Orlando 2016 xIMG_7596","ispublic":1,"isfriend":0,"isfamily":0},{"id":"33496969796","owner":"85121305@N08","secret":"60152d2cea","server":"2920","farm":3,"title":"Orlando 2016 xIMG_7604","ispublic":1,"isfriend":0,"isfamily":0},{"id":"33538020335","owner":"85121305@N08","secret":"357e59de49","server":"2826","farm":3,"title":"Orlando 2016 xIMG_7628","ispublic":1,"isfriend":0,"isfamily":0},{"id":"33496968836","owner":"85121305@N08","secret":"01d440ac31","server":"2806","farm":3,"title":"Orlando 2016 xIMG_7645","ispublic":1,"isfriend":0,"isfamily":0},{"id":"33154241160","owner":"85121305@N08","secret":"cf5df96b82","server":"2896","farm":3,"title":"Orlando 2016 xIMG_7661","ispublic":1,"isfriend":0,"isfamily":0},{"id":"32800656880","owner":"23720661@N08","secret":"839ae323ec","server":"704","farm":1,"title":"Disney's Boardwalk Resort","ispublic":1,"isfriend":0,"isfamily":0},{"id":"31140262213","owner":"91869814@N05","secret":"683a33aaf6","server":"360","farm":1,"title":"IMG_6220.jpg","ispublic":1,"isfriend":0,"isfamily":0},{"id":"30306505051","owner":"21652490@N06","secret":"c60d55b878","server":"8270","farm":9,"title":"The Eddie Cantor Board Game","ispublic":1,"isfriend":0,"isfamily":0},{"id":"29200378812","owner":"23720661@N08","secret":"35e53f25cf","server":"8047","farm":9,"title":"Disney's Boardwalk","ispublic":1,"isfriend":0,"isfamily":0},{"id":"28459255674","owner":"23720661@N08","secret":"397f9333eb","server":"8066","farm":9,"title":"A Splash of Color","ispublic":1,"isfriend":0,"isfamily":0},{"id":"28605069402","owner":"96430093@N05","secret":"bdb82614e4","server":"8772","farm":9,"title":"Delicious calamari at Trattoria al Forno at Disney's BoatdWalk Inn #calamari #boardwalk #disneyworld #wdw #trattoriaalforno #italianfood","ispublic":1,"isfriend":0,"isfamily":0},{"id":"27450895493","owner":"29648523@N05","secret":"b6bb7ce728","server":"7299","farm":8,"title":"Disney's BoardWalk - Walt Disney World","ispublic":1,"isfriend":0,"isfamily":0},{"id":"27450890163","owner":"29648523@N05","secret":"117a9e1bc4","server":"7379","farm":8,"title":"Disney's BoardWalk - Walt Disney World","ispublic":1,"isfriend":0,"isfamily":0},{"id":"28059200195","owner":"29648523@N05","secret":"1af5785ce0","server":"7289","farm":8,"title":"Disney's BoardWalk - Walt Disney World","ispublic":1,"isfriend":0,"isfamily":0},{"id":"27445513614","owner":"29648523@N05","secret":"86df8605fc","server":"7534","farm":8,"title":"Disney's BoardWalk - Walt Disney World","ispublic":1,"isfriend":0,"isfamily":0},{"id":"27964491956","owner":"85644119@N00","secret":"4d1c02bf3a","server":"7450","farm":8,"title":"Benches at Disney\u2019s Boardwalk Resort","ispublic":1,"isfriend":0,"isfamily":0},{"id":"27333093403","owner":"113086034@N04","secret":"9804ef079e","server":"7377","farm":8,"title":"Boardwalk Reflections","ispublic":1,"isfriend":0,"isfamily":0},{"id":"27860153496","owner":"113086034@N04","secret":"28af009afa","server":"7238","farm":8,"title":"Lighthouse Sunrise","ispublic":1,"isfriend":0,"isfamily":0},{"id":"27616374122","owner":"22937808@N04","secret":"28160e2efa","server":"7393","farm":8,"title":"Path To The Lighthouse","ispublic":1,"isfriend":0,"isfamily":0},{"id":"26888585843","owner":"113086034@N04","secret":"2288f4a36f","server":"7476","farm":8,"title":"StormAlong Bay Sunrise","ispublic":1,"isfriend":0,"isfamily":0},{"id":"26851937672","owner":"17725987@N00","secret":"68f7905792","server":"7243","farm":8,"title":"Disney's Boardwalk Resort","ispublic":1,"isfriend":0,"isfamily":0},{"id":"26490030166","owner":"23720661@N08","secret":"f38ed3b66f","server":"1541","farm":2,"title":"Disney's Boardwalk Resort","ispublic":1,"isfriend":0,"isfamily":0},{"id":"26311565355","owner":"22937808@N04","secret":"c8306b86dd","server":"1529","farm":2,"title":"Disney's Boardwalk Reflections","ispublic":1,"isfriend":0,"isfamily":0},{"id":"23767761341","owner":"7366969@N02","secret":"2df08a0a90","server":"5761","farm":6,"title":"Disney's Boardwalk","ispublic":1,"isfriend":0,"isfamily":0},{"id":"22432580308","owner":"7366969@N02","secret":"e89fa2e0d5","server":"588","farm":1,"title":"Disney's Boardwalk","ispublic":1,"isfriend":0,"isfamily":0},{"id":"22227183064","owner":"7366969@N02","secret":"1f6916a4d6","server":"592","farm":1,"title":"Disney's Boardwalk - Pool","ispublic":1,"isfriend":0,"isfamily":0},{"id":"22375482398","owner":"70378830@N08","secret":"32d3275749","server":"711","farm":1,"title":"Sunset at the Beach Club","ispublic":1,"isfriend":0,"isfamily":0},{"id":"21307354714","owner":"23720661@N08","secret":"c1e574cab2","server":"753","farm":1,"title":"Disney's Boardwalk","ispublic":1,"isfriend":0,"isfamily":0},{"id":"21066546668","owner":"100775237@N03","secret":"1d4cc0a129","server":"5835","farm":6,"title":"Spinach and mushroom pizza : Disney's BoardWalk Villas in Walt Disney World Resort","ispublic":1,"isfriend":0,"isfamily":0},{"id":"21228199766","owner":"100775237@N03","secret":"6dae094ac2","server":"5744","farm":6,"title":"Disney's BoardWalk Villas in Walt Disney World","ispublic":1,"isfriend":0,"isfamily":0},{"id":"20687267812","owner":"23720661@N08","secret":"9533a17df4","server":"637","farm":1,"title":"Threatening Skies","ispublic":1,"isfriend":0,"isfamily":0},{"id":"20148409269","owner":"23720661@N08","secret":"bf027743fe","server":"518","farm":1,"title":"Disney World","ispublic":1,"isfriend":0,"isfamily":0},{"id":"15975209206","owner":"95653839@N03","secret":"6aa1fe1133","server":"8584","farm":9,"title":"Disney's Old Key West Resort","ispublic":1,"isfriend":0,"isfamily":0},{"id":"15804430661","owner":"94128388@N07","secret":"1684e88bd3","server":"7512","farm":8,"title":"Disney\u2019s BoardWalk","ispublic":1,"isfriend":0,"isfamily":0},{"id":"15576158108","owner":"54589898@N00","secret":"87e9d493ce","server":"5610","farm":6,"title":"Disney's Boardwalk Inn","ispublic":1,"isfriend":0,"isfamily":0},{"id":"15631367141","owner":"128012202@N05","secret":"b2d652cf98","server":"5614","farm":6,"title":"Disney's BoardWalk Inn, Walt Disney World Resort, Orlando, Florida","ispublic":1,"isfriend":0,"isfamily":0},{"id":"15017362597","owner":"29232178@N03","secret":"8f1dd4e963","server":"5575","farm":6,"title":"Disney's Boardwalk Resort","ispublic":1,"isfriend":0,"isfamily":0},{"id":"14965087731","owner":"7366969@N02","secret":"9fcb71e475","server":"5590","farm":6,"title":"Disney's - Boardwalk","ispublic":1,"isfriend":0,"isfamily":0},{"id":"14770999237","owner":"7366969@N02","secret":"0e6820c8c8","server":"3878","farm":4,"title":"Disney's - Boardwalk","ispublic":1,"isfriend":0,"isfamily":0}]},"stat":"ok"}